{
  "project_info": {
    "project_number": "792320008636",
    "firebase_url": "https://chatapplication-c6367.firebaseio.com",
    "project_id": "chatapplication-c6367",
    "storage_bucket": "chatapplication-c6367.appspot.com"
  },
  "client": [
    {
      "client_info": {
        "mobilesdk_app_id": "1:792320008636:android:2981342f6c692782",
        "android_client_info": {
          "package_name": "com.example.hp.chatapplication"
        }
      },
      "oauth_client": [
        {
          "client_id": "792320008636-12gfftt774ptkk8g49ba9e01pf4b39uk.apps.googleusercontent.com",
          "client_type": 1,
          "android_info": {
            "package_name": "com.example.hp.chatapplication",
            "certificate_hash": "9062ca8fd27418f90528529165303f068f561a93"
          }
        },
        {
          "client_id": "792320008636-jh5vjo4fuvln1bvogqkl6a92rh7odncd.apps.googleusercontent.com",
          "client_type": 3
        }
      ],
      "api_key": [
        {
          "current_key": "AIzaSyCOVFXQtoJI5xKU-j7a07xyCQbF5qicP6o"
        }
      ],
      "services": {
        "analytics_service": {
          "status": 1
        },
        "appinvite_service": {
          "status": 2,
          "other_platform_oauth_client": [
            {
              "client_id": "792320008636-jh5vjo4fuvln1bvogqkl6a92rh7odncd.apps.googleusercontent.com",
              "client_type": 3
            }
          ]
        },
        "ads_service": {
          "status": 2
        }
      }
    }
  ],
  "configuration_version": "1"
}